module gitlab.com/trbroyles1/rfileserver

go 1.17

require (
	github.com/spf13/cobra v1.3.0
	github.com/spf13/viper v1.10.0
	gitlab.com/trbroyles1/golog v0.2.6
	google.golang.org/grpc v1.45.0
	google.golang.org/protobuf v1.27.1
)

require (
	github.com/fsnotify/fsnotify v1.5.1 // indirect
	github.com/golang/protobuf v1.5.2 // indirect
	github.com/hashicorp/hcl v1.0.0 // indirect
	github.com/inconshreveable/mousetrap v1.0.0 // indirect
	github.com/magiconair/properties v1.8.5 // indirect
	github.com/mitchellh/mapstructure v1.4.3 // indirect
	github.com/pelletier/go-toml v1.9.4 // indirect
	github.com/spf13/afero v1.6.0 // indirect
	github.com/spf13/cast v1.4.1 // indirect
	github.com/spf13/jwalterweatherman v1.1.0 // indirect
	github.com/spf13/pflag v1.0.5 // indirect
	github.com/subosito/gotenv v1.2.0 // indirect
	golang.org/x/net v0.0.0-20210813160813-60bc85c4be6d // indirect
	golang.org/x/sys v0.0.0-20211205182925-97ca703d548d // indirect
	golang.org/x/text v0.3.7 // indirect
	google.golang.org/genproto v0.0.0-20211208223120-3a66f561d7aa // indirect
	gopkg.in/ini.v1 v1.66.2 // indirect
	gopkg.in/yaml.v2 v2.4.0 // indirect
)
